[
    {
        "message": {
            "template": {
                "elements": {
                    "title": "Hello! What can I help you with ?",
                    "says": "",
                    "visemes": ""
                },
                "type": "Card"
            }
        }
    },
    {
        "ssml":  "<speak><s>Hello! What can I help you with ?</s></speak>"
    }
]